\relax 
\@writefile{toc}{\contentsline {section}{\numberline {1}Pruebas Cronometradas}{1}}
\@writefile{toc}{\contentsline {subsection}{\numberline {1.1}Resultados}{2}}
\@writefile{toc}{\contentsline {section}{\numberline {2}Ley de Amdahl}{3}}
\@writefile{toc}{\contentsline {section}{\numberline {3}Otros Tipos de Multiprocesamiento}{4}}
